^D:\DOCS\MEGA\CLASSES_FALL 2015\DATA STRUCTURES\LAB5\INFIXTOPOSTFIX.CPP
C:\WINDOWS\GLOBALIZATION\SORTING\SORTDEFAULT.NLS
C:\PROGRAM FILES (X86)\MICROSOFT VISUAL STUDIO 14.0\VC\BIN\1033\CLUI.DLL
C:\PROGRAM FILES (X86)\MICROSOFT VISUAL STUDIO 14.0\VC\BIN\MSPDBSRV.EXE
C:\WINDOWS\SYSTEM32\TZRES.DLL
^D:\DOCS\MEGA\CLASSES_FALL 2015\DATA STRUCTURES\LAB5\CONVERTFIX.CPP
