
reading file contents:: 
Process INFIX:	A+B-C

LOG:> operand:: A
LOG:> app. to pfx

LOG:> operator:: +
LOG:> push + to stack.

LOG:> operand:: B
LOG:> app. to pfx

LOG:> operator:: -
call precedence: for sym: - & stack.top: +

LOG:> stackObj + >= sym -
LOG:> append + to pfx
LOG:> pop + from stack
LOG:> STRING EMPTY AFTER POP!
LOG:> push - to stack
LOG:> operand:: C
LOG:> app. to pfx

LOG:> pop & append remaining stack items to pfx

processed!
++++++++++++++++++++++++++++++++
POSTFIX:	AB+C-
+++++++++++++++++++++++++++++++++

Process INFIX:	(A+B)*C

LOG:> left paren:: (
LOG:> push to stack. 

LOG:> operand:: A
LOG:> app. to pfx

LOG:> operator:: +
call precedence: for sym: + & stack.top: (

LOG:> push + to stack.

LOG:> operand:: B
LOG:> app. to pfx

LOG:> right paren:: )
LOG:> + app. to pfx.
LOG:> ( discarded.

LOG:> operator:: *
LOG:> push * to stack.

LOG:> operand:: C
LOG:> app. to pfx

LOG:> pop & append remaining stack items to pfx

processed!
++++++++++++++++++++++++++++++++
POSTFIX:	AB+C*
+++++++++++++++++++++++++++++++++

Process INFIX:	(A+B)*(C-D)

LOG:> left paren:: (
LOG:> push to stack. 

LOG:> operand:: A
LOG:> app. to pfx

LOG:> operator:: +
call precedence: for sym: + & stack.top: (

LOG:> push + to stack.

LOG:> operand:: B
LOG:> app. to pfx

LOG:> right paren:: )
LOG:> + app. to pfx.
LOG:> ( discarded.

LOG:> operator:: *
LOG:> push * to stack.

LOG:> left paren:: (
LOG:> push to stack. 

LOG:> operand:: C
LOG:> app. to pfx

LOG:> operator:: -
call precedence: for sym: - & stack.top: (

LOG:> push - to stack.

LOG:> operand:: D
LOG:> app. to pfx

LOG:> right paren:: )
LOG:> - app. to pfx.
LOG:> ( discarded.

LOG:> pop & append remaining stack items to pfx

processed!
++++++++++++++++++++++++++++++++
POSTFIX:	AB+CD-*
+++++++++++++++++++++++++++++++++

Process INFIX:	A+((B+C)*(E-F)-G)/(H-I)

LOG:> operand:: A
LOG:> app. to pfx

LOG:> operator:: +
LOG:> push + to stack.

LOG:> left paren:: (
LOG:> push to stack. 

LOG:> left paren:: (
LOG:> push to stack. 

LOG:> operand:: B
LOG:> app. to pfx

LOG:> operator:: +
call precedence: for sym: + & stack.top: (

LOG:> push + to stack.

LOG:> operand:: C
LOG:> app. to pfx

LOG:> right paren:: )
LOG:> + app. to pfx.
LOG:> ( discarded.

LOG:> operator:: *
call precedence: for sym: * & stack.top: (

LOG:> push * to stack.

LOG:> left paren:: (
LOG:> push to stack. 

LOG:> operand:: E
LOG:> app. to pfx

LOG:> operator:: -
call precedence: for sym: - & stack.top: (

LOG:> push - to stack.

LOG:> operand:: F
LOG:> app. to pfx

LOG:> right paren:: )
LOG:> - app. to pfx.
LOG:> ( discarded.

LOG:> operator:: -
call precedence: for sym: - & stack.top: *

LOG:> stackObj * >= sym -
LOG:> append * to pfx
LOG:> pop * from stack
LOG:> push - to stack.

LOG:> operand:: G
LOG:> app. to pfx

LOG:> right paren:: )
LOG:> - app. to pfx.
LOG:> ( discarded.

LOG:> operator:: /
call precedence: for sym: / & stack.top: +

LOG:> push / to stack.

LOG:> left paren:: (
LOG:> push to stack. 

LOG:> operand:: H
LOG:> app. to pfx

LOG:> operator:: -
call precedence: for sym: - & stack.top: (

LOG:> push - to stack.

LOG:> operand:: I
LOG:> app. to pfx

LOG:> right paren:: )
LOG:> - app. to pfx.
LOG:> ( discarded.

LOG:> pop & append remaining stack items to pfx

processed!
++++++++++++++++++++++++++++++++
POSTFIX:	ABC+EF-*G-HI-/+
+++++++++++++++++++++++++++++++++

Process INFIX:	A+B*C(C+D)-E/F*

LOG:> operand:: A
LOG:> app. to pfx

LOG:> operator:: +
LOG:> push + to stack.

LOG:> operand:: B
LOG:> app. to pfx

LOG:> operator:: *
call precedence: for sym: * & stack.top: +

LOG:> push * to stack.

LOG:> operand:: C
LOG:> app. to pfx

LOG:> left paren:: (
LOG:> push to stack. 

LOG:> operand:: C
LOG:> app. to pfx

LOG:> operator:: +
call precedence: for sym: + & stack.top: (

LOG:> push + to stack.

LOG:> operand:: D
LOG:> app. to pfx

LOG:> right paren:: )
LOG:> + app. to pfx.
LOG:> ( discarded.

LOG:> operator:: -
call precedence: for sym: - & stack.top: *

LOG:> stackObj * >= sym -
LOG:> append * to pfx
LOG:> pop * from stack
LOG:> stackObj + >= sym -
LOG:> append + to pfx
LOG:> pop + from stack
LOG:> STRING EMPTY AFTER POP!
LOG:> push - to stack
LOG:> operand:: E
LOG:> app. to pfx

LOG:> operator:: /
call precedence: for sym: / & stack.top: -

LOG:> push / to stack.

LOG:> operand:: F
LOG:> app. to pfx

LOG:> operator:: *
call precedence: for sym: * & stack.top: /

LOG:> stackObj / >= sym *
LOG:> append / to pfx
LOG:> pop / from stack
LOG:> push * to stack.

LOG:> pop & append remaining stack items to pfx

processed!
++++++++++++++++++++++++++++++++
POSTFIX:	ABCCD+*+EF/*-
+++++++++++++++++++++++++++++++++

Process INFIX:	G+H

LOG:> operand:: G
LOG:> app. to pfx

LOG:> operator:: +
LOG:> push + to stack.

LOG:> operand:: H
LOG:> app. to pfx

LOG:> pop & append remaining stack items to pfx

processed!
++++++++++++++++++++++++++++++++
POSTFIX:	GH+
+++++++++++++++++++++++++++++++++

